com\CGIAdvantage\base\WindowFrames.class
com\CGIAdvantage\pages\Dimension.class
com\CGIAdvantage\DriverFactory\DriverFactory.class
com\CGIAdvantage\base\AppUtils.class
com\CGIAdvantage\dataProvider\ExcelDataProvider.class
com\CGIAdvantage\resources\PropertyReader.class
com\CGIAdvantage\factory\ConfigProvider.class
com\CGIAdvantage\util\TestUtil.class
com\CGIAdvantage\DriverFactory\Log.class
com\CGIAdvantage\resources\Resources.class
com\CGIAdvantage\base\BaseClass.class
com\CGIAdvantage\pages\ReferenceData.class
com\CGIAdvantage\DriverFactory\DriverManager.class
com\CGIAdvantage\pages\HomePage.class
com\CGIAdvantage\pages\dimensions\FundMaintenance.class
com\CGIAdvantage\dataProvider\ExcelReader.class
com\CGIAdvantage\pages\LoginPage.class
